Innovative Data Exploration with LASSO: Unveiling Patterns in Earnings and Education
…
Analysis of the dataset and Results

Dataset RetSchool

The choice of a dataset like “RetSchool.csv”:

The dataset paints a detailed picture of the socio-economic landscape in 1976, emphasizing the critical roles of education and work experience in determining wages, while also highlighting the influence of demographic factors. The insights suggest that while individual effort and achievement (as measured by education and experience) are important, background factors such as race, region, and early family environment also play significant roles in shaping economic outcomes.

Code

library(readr)
data_RetSchool <- read_csv("RetSchool.csv")
print(data_RetSchool, n = 10)

# A tibble: 5,225 × 18
   rownames wage76 grade76 exp76 black south76 smsa76 region smsa66 momdad14
      <dbl>  <dbl>   <dbl> <dbl> <dbl>   <dbl>  <dbl>  <dbl>  <dbl>    <dbl>
 1        1 NA          NA    NA     1      NA      0      1      1        0
 2        2  1.70        7    16     1       0      1      1      1        1
 3        3  1.57       12     9     0       0      1      1      1        1
 4        4  1.98       12    16     0       0      1      1      1        1
 5        5  0.916      11    10     0       0      1      2      1        1
 6        6  1.99       12    16     0       0      1      2      1        1
 7        7  1.61       12     8     0       0      1      2      1        1
 8        8  1.73       18     9     0       0      1      2      1        1
 9        9  1.80       14     9     0       0      1      2      1        1
10       10  1.45       12    10     0       0      1      2      1        1
# ℹ 5,215 more rows
# ℹ 8 more variables: sinmom14 <dbl>, nodaded <dbl>, nomomed <dbl>,
#   daded <dbl>, momed <dbl>, famed <dbl>, age76 <dbl>, col4 <dbl>
…
